<?xml version="1.0" encoding="UTF-8"?>
<svg width="206px" height="295px" viewBox="0 0 206 295" version="1.1" xmlns="http://www.w3.org/2000/svg" xmlns:xlink="http://www.w3.org/1999/xlink">
    <title>left mobile@1x</title>
    <g id="Round-1" stroke="none" stroke-width="1" fill="none" fill-rule="evenodd">
        <g id="Kit-(Graphics)" transform="translate(-907.000000, -2867.000000)">
            <g id="left-mobile" transform="translate(907.000000, 2867.000000)">
                <path d="M206,-1.13686838e-13 L206.001535,1.12067344 C200.075714,0.381026331 194.038494,-4.54747351e-13 187.912281,-4.54747351e-13 C108.063533,-4.54747351e-13 43.3333333,64.7301996 43.3333333,144.578947 C43.3333333,224.427695 108.063533,289.157895 187.912281,289.157895 C194.038494,289.157895 200.075714,288.776868 206.001535,288.037221 L206,294.999 L-9.9475983e-13,295 L-9.9475983e-13,-2.27373675e-13 L206,-1.13686838e-13 Z" id="Combined-Shape" fill="#FEEBD6"></path>
                <g id="left-graphics" transform="translate(16.000000, 50.837557)">
                    <path d="M27.2925748,93.5160104 C27.2925748,130.309269 41.0363879,163.892489 63.670189,189.411843 C43.0528462,180.676325 26.3918737,166.398502 17.6301784,148.694535 C-3.43606412,106.1176 -21.2596793,44.9753527 61.6061851,-0.000247228033 C40.2036732,25.2091133 27.2925748,57.8547875 27.2925748,93.5160104 Z" id="Combined-Shape" fill="#E41E27"></path>
                    <path d="M171.871522,238.094958 C177.791141,238.094958 183.627668,237.739197 189.360888,237.047889 C176.013087,241.14329 160.524811,243.375501 142.779356,243.786512 C117.21965,244.37968 96.4444239,240.774606 79.2690531,232.765599 C44.7779982,216.682156 27.4335504,183.89453 26.2452033,132.532496 C26.0002501,121.967316 26.4508667,112.17212 27.6062085,103.119268 C32.5490962,178.490872 95.2496691,238.094958 171.871522,238.094958 Z" id="Combined-Shape" fill="#F89D33"></path>
                </g>
            </g>
        </g>
    </g>
</svg>