<svg xmlns="http://www.w3.org/2000/svg" width="11" height="23" viewBox="0 0 11 23">
    <g fill="none" fill-rule="evenodd">
        <g fill="#FFF" fill-rule="nonzero">
            <g>
                <g>
                    <g>
                        <g>
                            <path d="M2.538 23h4.534V11.5h3.498L11 7.448H7.072v-2.52c0-.895.355-.973.785-.973h3.083V.014L7.298 0c-4.042 0-4.76 2.94-4.76 4.82v2.628H0V11.5h2.538V23z" transform="translate(-169 -72) translate(0 24) translate(0 40) translate(139) translate(30 8)"/>
                        </g>
                    </g>
                </g>
            </g>
        </g>
    </g>
</svg>
