<svg xmlns="http://www.w3.org/2000/svg" width="20" height="21" viewBox="0 0 20 21">
    <g fill="none" fill-rule="evenodd">
        <g>
            <g>
                <g>
                    <g>
                        <g>
                            <g>
                                <g>
                                    <path fill="#F4F4F5" d="M10 0C7.348 0 4.805 1.054 2.929 2.929 1.054 4.805 0 7.349 0 10c0 2.652 1.054 5.195 2.929 7.071C4.805 18.946 7.349 20 10 20c2.652 0 5.195-1.054 7.071-2.929C18.946 15.195 20 12.651 20 10c0-2.652-1.054-5.195-2.929-7.071C15.195 1.054 12.651 0 10 0z" transform="translate(-361 -1695) translate(86 1560) translate(56 39.917) translate(0 72) translate(44) translate(0 24) translate(175)"/>
                                    <path fill="#107BB8" d="M10.302 14.377c.428.177.706.594.706 1.057 0 .632-.513 1.143-1.144 1.145-.463 0-.88-.28-1.057-.707-.178-.427-.08-.92.247-1.248.328-.327.82-.424 1.248-.247zM9.857 3.42c1.014.007 1.986.403 2.714 1.109.728.705 1.155 1.664 1.193 2.677.028.835-.214 1.658-.691 2.345-.477.687-1.163 1.201-1.956 1.467l-.002.002s-.114.041-.114.107v.908h.001c0 .63-.51 1.14-1.14 1.14-.628 0-1.139-.51-1.139-1.14v-.908c.01-1.034.68-1.946 1.662-2.267.679-.226 1.128-.871 1.104-1.586-.045-.874-.76-1.563-1.636-1.575-.62.003-1.182.36-1.449.92-.273.566-.954.805-1.52.531-.568-.273-.806-.954-.533-1.52.315-.66.807-1.216 1.424-1.607.616-.39 1.33-.6 2.059-.603h.023z" transform="translate(-361 -1695) translate(86 1560) translate(56 39.917) translate(0 72) translate(44) translate(0 24) translate(175)"/>
                                </g>
                            </g>
                        </g>
                    </g>
                </g>
            </g>
        </g>
    </g>
</svg>
