<svg xmlns="http://www.w3.org/2000/svg" width="32" height="32" viewBox="0 0 32 32">
    <g fill="none" fill-rule="evenodd">
        <g>
            <g>
                <g>
                    <g>
                        <g>
                            <g fill="#EF6225" fill-rule="nonzero" transform="translate(-16 -6354) translate(0 567) translate(16 5626) translate(0 145) translate(0 16)">
                                <circle cx="16" cy="16" r="16"/>
                            </g>
                            <path fill="#FFF" d="M16 9c.803 0 1.462.659 1.462 1.462v4.076h4.076c.803 0 1.462.66 1.462 1.462 0 .803-.659 1.462-1.462 1.462h-4.076v4.076c0 .803-.66 1.462-1.462 1.462-.803 0-1.462-.659-1.462-1.462v-4.076h-4.076C9.659 17.462 9 16.802 9 16c0-.803.659-1.462 1.462-1.462h4.076v-4.076C14.538 9.659 15.198 9 16 9z" transform="translate(-16 -6354) translate(0 567) translate(16 5626) translate(0 145) translate(0 16)"/>
                        </g>
                    </g>
                </g>
            </g>
        </g>
    </g>
</svg>
