<svg xmlns="http://www.w3.org/2000/svg" width="49" height="48" viewBox="0 0 49 48">
    <g fill="none" fill-rule="evenodd">
        <g fill="#DBEDF7">
            <g>
                <path d="M3.468 32.992C-.24 25.5-.966 19.266 1.249 13.937c2.506-6.03 8.39-9.45 12.566-11.562C17 .763 20.404 0 23.935 0c8.76 0 16.614 4.875 20.497 12.722 2.003 4.049 4.515 10.128 3.206 16.157-1.27 5.845-5.703 10.575-13.553 14.46-4.596 2.274-8.679 3.38-12.48 3.38-7.634 0-13.567-4.49-18.137-13.727z" transform="translate(1 -23) translate(0 23.346)"/>
            </g>
        </g>
    </g>
</svg>
